<svg xmlns="http://www.w3.org/2000/svg" width="25" height="25" viewBox="0 0 25 25" xmlns:xlink="http://www.w3.org/1999/xlink">
  <defs>
    <path id="a" d="M12.5,0 C5.59666666,0 0,5.59666666 0,12.5 C0,19.4033334 5.59666666,25 12.5,25 C19.4033334,25 25,19.4033334 25,12.5 C25,5.59666666 19.4033334,0 12.5,0 L12.5,0 Z M12.5,5.07541666 C13.2329166,5.07541666 13.82625,5.66916666 13.82625,6.40166666 C13.82625,7.13416666 13.2329166,7.72708334 12.5,7.72708334 C11.7679167,7.72708334 11.1745833,7.13375 11.1745833,6.40166666 C11.1745833,5.66958334 11.7679167,5.07541666 12.5,5.07541666 L12.5,5.07541666 Z M15.4166666,19.92375 L9.58333334,19.92375 L9.58333334,18.8633334 L11.1745833,18.3333334 L11.1745833,10.90875 L9.58333334,10.37875 L9.58333334,9.31833334 L11.1745833,9.31833334 L13.82625,9.31833334 L13.82625,18.3333334 L15.4166666,18.8633334 L15.4166666,19.92375 L15.4166666,19.92375 Z"/>
  </defs>
  <g fill="none" fill-rule="evenodd">
    <use fill="#000000" fill-rule="nonzero" xlink:href="#a"/>
  </g>
</svg>
